Chapitre 6 Statistiques univariées | Éléments de statistiques
…
Si on a des données cela peut perturber les fonctions. Pour éviter cela
on peut utiliser l’argument na.rm = TRUE.

# retirer les NAs dans le calcul d'une moyenne
mean(dplyr::starwars$mass, na.rm = TRUE)

## [1] 97.31186

Si on veut supprimer les lignes contenants des données manquantes on
peut utiliser la fonction na.omit().

na.omit(dplyr::starwars)

## # A tibble: 29 × 14
##    name        height  mass hair_…¹ skin_…² eye_c…³ birth…⁴ sex   gender homew…⁵
##    <chr>        <int> <dbl> <chr>   <chr>   <chr>     <dbl> <chr> <chr>  <chr>  
##  1 Luke Skywa…    172    77 blond   fair    blue       19   male  mascu… Tatooi…
##  2 Darth Vader    202   136 none    white   yellow     41.9 male  mascu… Tatooi…
##  3 Leia Organa    150    49 brown   light   brown      19   fema… femin… Aldera…
##  4 Owen Lars      178   120 brown,… light   blue       52   male  mascu… Tatooi…
##  5 Beru White…    165    75 brown   light   blue       47   fema… femin… Tatooi…
##  6 Biggs Dark…    183    84 black   light   brown      24   male  mascu… Tatooi…
##  7 Obi-Wan Ke…    182    77 auburn… fair    blue-g…    57   male  mascu… Stewjon
##  8 Anakin Sky…    188    84 blond   fair    blue       41.9 male  mascu… Tatooi…
##  9 Chewbacca      228   112 brown   unknown blue      200   male  mascu… Kashyy…
## 10 Han Solo       180    80 brown   fair    brown      29   male  mascu… Corell…
## # … with 19 more rows, 4 more variables: species <chr>, films <list>,
## #   vehicles <list>, starships <list>, and abbreviated variable names
## #   ¹​hair_color, ²​skin_color, ³​eye_color, ⁴​birth_year, ⁵​homeworld
…
